FDP_2026.sim/sim_1/behav/xsim/tb_mic_spi.vcd
$date
   Sat Mar 21 16:42:25 2026
$end
$version
  2018.2
$end
$timescale
  1ps
$end
$scope module tb_mic_spi_interface $end
$var reg 1 ! START $end
$var reg 1 " basys3_clk $end
$var reg 1 # MISO $end
$var wire 1 $ DONE $end
$var wire 1 % CS $end
$var wire 1 & SCLK $end
$var wire 12 ' DATA_OUT [11:0] $end
$var reg 16 ( tx_frame [15:0] $end
$var integer 32 ) i $end
$var parameter 12 * TEST_VAL [11:0] $end
$scope module dut $end
$var wire 1 + START $end
$var wire 1 , basys3_clk $end
$var wire 1 - MISO $end
$var wire 1 $ DONE $end
$var reg 1 . CS $end
$var reg 1 / SCLK $end
$var reg 12 0 DATA_OUT [11:0] $end
$var reg 1 1 state $end
$var reg 1 2 nextstate $end
$var reg 4 3 cycle_count [3:0] $end
$var wire 1 4 spi_clk $end
$var parameter 0 5 idle $end
$var parameter 0 6 busy $end
$scope module spiclk $end
$var wire 1 , clock $end
$var wire 1 4 clk_out $end
$var reg 5 7 counter [4:0] $end
$var parameter 32 8 width [31:0] $end
$upscope $end
$upscope $end
$upscope $end
$enddefinitions $end
#0
$dumpvars
0!
0"
0#
0$
1%
1&
b0 '
bx (
bx )
b101000111100 *
0+
0,
0-
1.
1/
b0 0
01
02
b0 3
04
05
16
b0 7
b101 8
$end
#5000
1"
1,
b1 7
#10000
0"
0,
#15000
1"
1,
b10 7
#20000
0"
0,
#25000
1"
1,
b11 7
#30000
0"
0,
#35000
1"
1,
b100 7
#40000
0"
0,
#45000
1"
1,
b101 7
#50000
0"
0,
#55000
1"
1,
b110 7
#60000
0"
0,
#65000
1"
1,
b111 7
#70000
0"
0,
#75000
1"
1,
b1000 7
#80000
0"
0,
#85000
1"
1,
b1001 7
#90000
0"
0,
#95000
1"
1,
b1010 7
#100000
0"
0,
#105000
1"
1,
b1011 7
#110000
0"
0,
#115000
1"
1,
b1100 7
#120000
0"
0,
#125000
1"
1,
b1101 7
#130000
0"
0,
#135000
1"
1,
b1110 7
#140000
0"
0,
#145000
1"
1,
b1111 7
#150000
0"
0,
#155000
1!
1"
0%
1&
b101000111100 (
1+
1,
0.
1/
11
12
b0 3
14
b10000 7
#160000
0"
0,
#165000
0!
1"
1%
b1111 )
0+
1,
1.
1/
b10001 7
#170000
0"
0,
#175000
1"
1,
b10010 7
#180000
0"
0,
#185000
1"
1,
b10011 7
#190000
0"
0,
#195000
1"
1,
b10100 7
#200000
0"
0,
#205000
1"
1,
b10101 7
#210000
0"
0,
#215000
1"
1,
b10110 7
#220000
0"
0,
#225000
1"
1,
b10111 7
#230000
0"
0,
#235000
1"
1,
b11000 7
#240000
0"
0,
#245000
1"
1,
b11001 7
#250000
0"
0,
#255000
1"
1,
b11010 7
#260000
0"
0,
#265000
1"
1,
b11011 7
#270000
0"
0,
#275000
1"
1,
b11100 7
#280000
0"
0,
#285000
1"
1,
b11101 7
#290000
0"
0,
#295000
1"
1,
b11110 7
#300000
0"
0,
#305000
1"
1,
b11111 7
#310000
0"
0,
#315000
1"
1,
1.
1/
04
b0 7
#320000
0"
0,
#325000
1"
1,
b1 7
#330000
0"
0,
#335000
1"
1,
b10 7
#340000
0"
0,
#345000
1"
1,
b11 7
#350000
0"
0,
#355000
1"
1,
b100 7
#360000
0"
0,
#365000
1"
1,
b101 7
#370000
0"
0,
#375000
1"
1,
b110 7
#380000
0"
0,
#385000
1"
1,
b111 7
#390000
0"
0,
#395000
1"
1,
b1000 7
#400000
0"
0,
#405000
1"
1,
b1001 7
#410000
0"
0,
#415000
1"
1,
b1010 7
#420000
0"
0,
#425000
1"
1,
b1011 7
#430000
0"
0,
#435000
1"
1,
b1100 7
#440000
0"
0,
#445000
1"
1,
b1101 7
#450000
0"
0,
#455000
1"
1,
b1110 7
#460000
0"
0,
#465000
1"
1,
b1111 7
#470000
0"
0,
#475000
1"
0$
1,
1.
1/
b0 0
11
b1 3
14
b10000 7
#480000
0"
0,
#485000
1"
1,
b10001 7
#490000
0"
0,
#495000
1"
1,
b10010 7
#500000
0"
0,
#505000
1"
1,
b10011 7
#510000
0"
0,
#515000
1"
1,
b10100 7
#520000
0"
0,
#525000
1"
1,
b10101 7
#530000
0"
0,
#535000
1"
1,
b10110 7
#540000
0"
0,
#545000
1"
1,
b10111 7
#550000
0"
0,
#555000
1"
1,
b11000 7
#560000
0"
0,
#565000
1"
1,
b11001 7
#570000
0"
0,
#575000
1"
1,
b11010 7
#580000
0"
0,
#585000
1"
1,
b11011 7
#590000
0"
0,
#595000
1"
1,
b11100 7
#600000
0"
0,
#605000
1"
1,
b11101 7
#610000
0"
0,
#615000
1"
1,
b11110 7
#620000
0"
0,
#625000
1"
1,
b11111 7
#630000
0"
0,
#635000
1"
1,
1.
1/
04
b0 7
#640000
0"
0,
#645000
1"
1,
b1 7
#650000
0"
0,
#655000
1"
1,
b10 7
#660000
0"
0,
#665000
1"
1,
b11 7
#670000
0"
0,
#675000
1"
1,
b100 7
#680000
0"
0,
#685000
1"
1,
b101 7
#690000
0"
0,
#695000
1"
1,
b110 7
#700000
0"
0,
#705000
1"
1,
b111 7
#710000
0"
0,
#715000
1"
1,
b1000 7
#720000
0"
0,
#725000
1"
1,
b1001 7
#730000
0"
0,
#735000
1"
1,
b1010 7
#740000
0"
0,
#745000
1"
1,
b1011 7
#750000
0"
0,
#755000
1"
1,
b1100 7
#760000
0"
0,
#765000
1"
1,
b1101 7
#770000
0"
0,
#775000
1"
1,
b1110 7
#780000
0"
0,
#785000
1"
1,
b1111 7
#790000
0"
0,
#795000
1"
0$
1,
1.
1/
b0 0
11
b10 3
14
b10000 7
#800000
0"
0,
#805000
1"
1,
b10001 7
#810000
0"
0,
#815000
1"
1,
b10010 7
#820000
0"
0,
#825000
1"
1,
b10011 7
#830000
0"
0,
#835000
1"
1,
b10100 7
#840000
0"
0,
#845000
1"
1,
b10101 7
#850000
0"
0,
#855000
1"
1,
b10110 7
#860000
0"
0,
#865000
1"
1,
b10111 7
#870000
0"
0,
#875000
1"
1,
b11000 7
#880000
0"
0,
#885000
1"
1,
b11001 7
#890000
0"
0,
#895000
1"
1,
b11010 7
#900000
0"
0,
#905000
1"
1,
b11011 7
#910000
0"
0,
#915000
1"
1,
b11100 7
#920000
0"
0,
#925000
1"
1,
b11101 7
#930000
0"
0,
#935000
1"
1,
b11110 7
#940000
0"
0,
#945000
1"
1,
b11111 7
#950000
0"
0,
#955000
1"
1,
1.
1/
04
b0 7
#960000
0"
0,
#965000
1"
1,
b1 7
#970000
0"
0,
#975000
1"
1,
b10 7
#980000
0"
0,
#985000
1"
1,
b11 7
#990000
0"
0,
#995000
1"
1,
b100 7
#1000000
0"
0,
#1005000
1"
1,
b101 7
#1010000
0"
0,
#1015000
1"
1,
b110 7
#1020000
0"
0,
#1025000
1"
1,
b111 7
#1030000
0"
0,
#1035000
1"
1,
b1000 7
#1040000
0"
0,
#1045000
1"
1,
b1001 7
#1050000
0"
0,
#1055000
1"
1,
b1010 7
#1060000
0"
0,
#1065000
1"
1,
b1011 7
#1070000
0"
0,
#1075000
1"
1,
b1100 7
#1080000
0"
0,
#1085000
1"
1,
b1101 7
#1090000
0"
0,
#1095000
1"
1,
b1110 7
#1100000
0"
0,
#1105000
1"
1,
b1111 7
#1110000
0"
0,
#1115000
1"
0$
1,
1.
1/
b0 0
11
b11 3
14
b10000 7
#1120000
0"
0,
#1125000
1"
1,
b10001 7
#1130000
0"
0,
#1135000
1"
1,
b10010 7
#1140000
0"
0,
#1145000
1"
1,
b10011 7
#1150000
0"
0,
#1155000
1"
1,
b10100 7
#1160000
0"
0,
#1165000
1"
1,
b10101 7
#1170000
0"
0,
#1175000
1"
1,
b10110 7
#1180000
0"
0,
#1185000
1"
1,
b10111 7
#1190000
0"
0,
#1195000
1"
1,
b11000 7
#1200000
0"
0,
#1205000
1"
1,
b11001 7
#1210000
0"
0,
#1215000
1"
1,
b11010 7
#1220000
0"
0,
#1225000
1"
1,
b11011 7
#1230000
0"
0,
#1235000
1"
1,
b11100 7
#1240000
0"
0,
#1245000
1"
1,
b11101 7
#1250000
0"
0,
#1255000
1"
1,
b11110 7
#1260000
0"
0,
#1265000
1"
1,
b11111 7
#1270000
0"
0,
#1275000
1"
1,
1.
1/
04
b0 7
#1280000
0"
0,
#1285000
1"
1,
b1 7
#1290000
0"
0,
#1295000
1"
1,
b10 7
#1300000
0"
0,
#1305000
1"
1,
b11 7
#1310000
0"
0,
#1315000
1"
1,
b100 7
#1320000
0"
0,
#1325000
1"
1,
b101 7
#1330000
0"
0,
#1335000
1"
1,
b110 7
#1340000
0"
0,
#1345000
1"
1,
b111 7
#1350000
0"
0,
#1355000
1"
1,
b1000 7
#1360000
0"
0,
#1365000
1"
1,
b1001 7
#1370000
0"
0,
#1375000
1"
1,
b1010 7
#1380000
0"
0,
#1385000
1"
1,
b1011 7
#1390000
0"
0,
#1395000
1"
1,
b1100 7
#1400000
0"
0,
#1405000
1"
1,
b1101 7
#1410000
0"
0,
#1415000
1"
1,
b1110 7
#1420000
0"
0,
#1425000
1"
1,
b1111 7
#1430000
0"
0,
#1435000
1"
0$
1,
1.
1/
b0 0
11
b100 3
14
b10000 7
#1440000
0"
0,
#1445000
1"
1,
b10001 7
#1450000
0"
0,
#1455000
1"
1,
b10010 7
#1460000
0"
0,
#1465000
1"
1,
b10011 7
#1470000
0"
0,
#1475000
1"
1,
b10100 7
#1480000
0"
0,
#1485000
1"
1,
b10101 7
#1490000
0"
0,
#1495000
1"
1,
b10110 7
#1500000
0"
0,
#1505000
1"
1,
b10111 7
#1510000
0"
0,
#1515000
1"
1,
b11000 7
#1520000
0"
0,
#1525000
1"
1,
b11001 7
#1530000
0"
0,
#1535000
1"
1,
b11010 7
#1540000
0"
0,
#1545000
1"
1,
b11011 7
#1550000
0"
0,
#1555000
1"
1,
b11100 7
#1560000
0"
0,
#1565000
1"
1,
b11101 7
#1570000
0"
0,
#1575000
1"
1,
b11110 7
#1580000
0"
0,
#1585000
1"
1,
b11111 7
#1590000
0"
0,
#1595000
1"
1,
1.
1/
04
b0 7
#1600000
0"
0,
#1605000
1"
1,
b1 7
#1610000
0"
0,
#1615000
1"
1,
b10 7
#1620000
0"
0,
#1625000
1"
1,
b11 7
#1630000
0"
0,
#1635000
1"
1,
b100 7
#1640000
0"
0,
#1645000
1"
1,
b101 7
#1650000
0"
0,
#1655000
1"
1,
b110 7
#1660000
0"
0,
#1665000
1"
1,
b111 7
#1670000
0"
0,
#1675000
1"
1,
b1000 7
#1680000
0"
0,
#1685000
1"
1,
b1001 7
#1690000
0"
0,
#1695000
1"
1,
b1010 7
#1700000
0"
0,
#1705000
1"
1,
b1011 7
#1710000
0"
0,
#1715000
1"
1,
b1100 7
#1720000
0"
0,
#1725000
1"
1,
b1101 7
#1730000
0"
0,
#1735000
1"
1,
b1110 7
#1740000
0"
0,
#1745000
1"
1,
b1111 7
#1750000
0"
0,
#1755000
1"
0$
1,
1.
1/
b0 0
11
b101 3
14
b10000 7
#1760000
0"
0,
#1765000
1"
1,
b10001 7
#1770000
0"
0,
#1775000
1"
1,
b10010 7
#1780000
0"
0,
#1785000
1"
1,
b10011 7
#1790000
0"
0,
#1795000
1"
1,
b10100 7
#1800000
0"
0,
#1805000
1"
1,
b10101 7
#1810000
0"
0,
#1815000
1"
1,
b10110 7
#1820000
0"
0,
#1825000
1"
1,
b10111 7
#1830000
0"
0,
#1835000
1"
1,
b11000 7
#1840000
0"
0,
#1845000
1"
1,
b11001 7
#1850000
0"
0,
#1855000
1"
1,
b11010 7
#1860000
0"
0,
#1865000
1"
1,
b11011 7
#1870000
0"
0,
#1875000
1"
1,
b11100 7
#1880000
0"
0,
#1885000
1"
1,
b11101 7
#1890000
0"
0,
#1895000
1"
1,
b11110 7
#1900000
0"
0,
#1905000
1"
1,
b11111 7
#1910000
0"
0,
#1915000
1"
1,
1.
1/
04
b0 7
#1920000
0"
0,
#1925000
1"
1,
b1 7
#1930000
0"
0,
#1935000
1"
1,
b10 7
#1940000
0"
0,
#1945000
1"
1,
b11 7
#1950000
0"
0,
#1955000
1"
1,
b100 7
#1960000
0"
0,
#1965000
1"
1,
b101 7
#1970000
0"
0,
#1975000
1"
1,
b110 7
#1980000
0"
0,
#1985000
1"
1,
b111 7
#1990000
0"
0,
#1995000
1"
1,
b1000 7
#2000000
0"
0,
#2005000
1"
1,
b1001 7
#2010000
0"
0,
#2015000
1"
1,
b1010 7
#2020000
0"
0,
#2025000
1"
1,
b1011 7
#2030000
0"
0,
#2035000
1"
1,
b1100 7
#2040000
0"
0,
#2045000
1"
1,
b1101 7
#2050000
0"
0,
#2055000
1"
1,
b1110 7
#2060000
0"
0,
#2065000
1"
1,
b1111 7
#2070000
0"
0,
#2075000
1"
0$
1,
1.
1/
b0 0
11
b110 3
14
b10000 7
#2080000
0"
0,
#2085000
1"
1,
b10001 7
#2090000
0"
0,
#2095000
1"
1,
b10010 7
#2100000
0"
0,
#2105000
1"
1,
b10011 7
#2110000
0"
0,
#2115000
1"
1,
b10100 7
#2120000
0"
0,
#2125000
1"
1,
b10101 7
#2130000
0"
0,
#2135000
1"
1,
b10110 7
#2140000
0"
0,
#2145000
1"
1,
b10111 7
#2150000
0"
0,
#2155000
1"
1,
b11000 7
#2160000
0"
0,
#2165000
1"
1,
b11001 7
#2170000
0"
0,
#2175000
1"
1,
b11010 7
#2180000
0"
0,
#2185000
1"
1,
b11011 7
#2190000
0"
0,
#2195000
1"
1,
b11100 7
#2200000
0"
0,
#2205000
1"
1,
b11101 7
#2210000
0"
0,
#2215000
1"
1,
b11110 7
#2220000
0"
0,
#2225000
1"
1,
b11111 7
#2230000
0"
0,
#2235000
1"
1,
1.
1/
04
b0 7
#2240000
0"
0,
#2245000
1"
1,
b1 7
#2250000
0"
0,
#2255000
1"
1,
b10 7
#2260000
0"
0,
#2265000
1"
1,
b11 7
#2270000
0"
0,
#2275000
1"
1,
b100 7
#2280000
0"
0,
#2285000
1"
1,
b101 7
#2290000
0"
0,
#2295000
1"
1,
b110 7
#2300000
0"
0,
#2305000
1"
1,
b111 7
#2310000
0"
0,
#2315000
1"
1,
b1000 7
#2320000
0"
0,
#2325000
1"
1,
b1001 7
#2330000
0"
0,
#2335000
1"
1,
b1010 7
#2340000
0"
0,
#2345000
1"
1,
b1011 7
#2350000
0"
0,
#2355000
1"
1,
b1100 7
#2360000
0"
0,
#2365000
1"
1,
b1101 7
#2370000
0"
0,
#2375000
1"
1,
b1110 7
#2380000
0"
0,
#2385000
1"
1,
b1111 7
#2390000
0"
0,
#2395000
1"
0$
1,
1.
1/
b0 0
11
b111 3
14
b10000 7
#2400000
0"
0,
#2405000
1"
1,
b10001 7
#2410000
0"
0,
#2415000
1"
1,
b10010 7
#2420000
0"
0,
#2425000
1"
1,
b10011 7
#2430000
0"
0,
#2435000
1"
1,
b10100 7
#2440000
0"
0,
#2445000
1"
1,
b10101 7
#2450000
0"
0,
#2455000
1"
1,
b10110 7
#2460000
0"
0,
#2465000
1"
1,
b10111 7
#2470000
0"
0,
#2475000
1"
1,
b11000 7
#2480000
0"
0,
#2485000
1"
1,
b11001 7
#2490000
0"
0,
#2495000
1"
1,
b11010 7
#2500000
0"
0,
#2505000
1"
1,
b11011 7
#2510000
0"
0,
#2515000
1"
1,
b11100 7
#2520000
0"
0,
#2525000
1"
1,
b11101 7
#2530000
0"
0,
#2535000
1"
1,
b11110 7
#2540000
0"
0,
#2545000
1"
1,
b11111 7
#2550000
0"
0,
#2555000
1"
1,
1.
1/
04
b0 7
#2560000
0"
0,
#2565000
1"
1,
b1 7
#2570000
0"
0,
#2575000
1"
1,
b10 7
#2580000
0"
0,
#2585000
1"
1,
b11 7
#2590000
0"
0,
#2595000
1"
1,
b100 7
#2600000
0"
0,
#2605000
1"
1,
b101 7
#2610000
0"
0,
#2615000
1"
1,
b110 7
#2620000
0"
0,
#2625000
1"
1,
b111 7
#2630000
0"
0,
#2635000
1"
1,
b1000 7
#2640000
0"
0,
#2645000
1"
1,
b1001 7
#2650000
0"
0,
#2655000
1"
1,
b1010 7
#2660000
0"
0,
#2665000
1"
1,
b1011 7
#2670000
0"
0,
#2675000
1"
1,
b1100 7
#2680000
0"
0,
#2685000
1"
1,
b1101 7
#2690000
0"
0,
#2695000
1"
1,
b1110 7
#2700000
0"
0,
#2705000
1"
1,
b1111 7
#2710000
0"
0,
#2715000
1"
0$
1,
1.
1/
b0 0
11
b1000 3
14
b10000 7
#2720000
0"
0,
#2725000
1"
1,
b10001 7
#2730000
0"
0,
#2735000
1"
1,
b10010 7
#2740000
0"
0,
#2745000
1"
1,
b10011 7
#2750000
0"
0,
#2755000
1"
1,
b10100 7
#2760000
0"
0,
#2765000
1"
1,
b10101 7
#2770000
0"
0,
#2775000
1"
1,
b10110 7
#2780000
0"
0,
#2785000
1"
1,
b10111 7
#2790000
0"
0,
#2795000
1"
1,
b11000 7
#2800000
0"
0,
#2805000
1"
1,
b11001 7
#2810000
0"
0,
#2815000
1"
1,
b11010 7
#2820000
0"
0,
#2825000
1"
1,
b11011 7
#2830000
0"
0,
#2835000
1"
1,
b11100 7
#2840000
0"
0,
#2845000
1"
1,
b11101 7
#2850000
0"
0,
#2855000
1"
1,
b11110 7
#2860000
0"
0,
#2865000
1"
1,
b11111 7
#2870000
0"
0,
#2875000
1"
1,
1.
1/
04
b0 7
#2880000
0"
0,
#2885000
1"
1,
b1 7
#2890000
0"
0,
#2895000
1"
1,
b10 7
#2900000
0"
0,
#2905000
1"
1,
b11 7
#2910000
0"
0,
#2915000
1"
1,
b100 7
#2920000
0"
0,
#2925000
1"
1,
b101 7
#2930000
0"
0,
#2935000
1"
1,
b110 7
#2940000
0"
0,
#2945000
1"
1,
b111 7
#2950000
0"
0,
#2955000
1"
1,
b1000 7
#2960000
0"
0,
#2965000
1"
1,
b1001 7
#2970000
0"
0,
#2975000
1"
1,
b1010 7
#2980000
0"
0,
#2985000
1"
1,
b1011 7
#2990000
0"
0,
#2995000
1"
1,
b1100 7
#3000000
0"
0,
#3005000
1"
1,
b1101 7
#3010000
0"
0,
#3015000
1"
1,
b1110 7
#3020000
0"
0,
#3025000
1"
1,
b1111 7
#3030000
0"
0,
#3035000
1"
0$
1,
1.
1/
b0 0
11
b1001 3
14
b10000 7
#3040000
0"
0,
#3045000
1"
1,
b10001 7
#3050000
0"
0,
#3055000
1"
1,
b10010 7
#3060000
0"
0,
#3065000
1"
1,
b10011 7
#3070000
0"
0,
#3075000
1"
1,
b10100 7
#3080000
0"
0,
#3085000
1"
1,
b10101 7
#3090000
0"
0,
#3095000
1"
1,
b10110 7
#3100000
0"
0,
#3105000
1"
1,
b10111 7
#3110000
0"
0,
#3115000
1"
1,
b11000 7
#3120000
0"
0,
#3125000
1"
1,
b11001 7
#3130000
0"
0,
#3135000
1"
1,
b11010 7
#3140000
0"
0,
#3145000
1"
1,
b11011 7
#3150000
0"
0,
#3155000
1"
1,
b11100 7
#3160000
0"
0,
#3165000
1"
1,
b11101 7
#3170000
0"
0,
#3175000
1"
1,
b11110 7
#3180000
0"
0,
#3185000
1"
1,
b11111 7
#3190000
0"
0,
#3195000
1"
1,
1.
1/
04
b0 7
#3200000
0"
0,
#3205000
1"
1,
b1 7
#3210000
0"
0,
#3215000
1"
1,
b10 7
#3220000
0"
0,
#3225000
1"
1,
b11 7
#3230000
0"
0,
#3235000
1"
1,
b100 7
#3240000
0"
0,
#3245000
1"
1,
b101 7
#3250000
0"
0,
#3255000
1"
1,
b110 7
#3260000
0"
0,
#3265000
1"
1,
b111 7
#3270000
0"
0,
#3275000
1"
1,
b1000 7
#3280000
0"
0,
#3285000
1"
1,
b1001 7
#3290000
0"
0,
#3295000
1"
1,
b1010 7
#3300000
0"
0,
#3305000
1"
1,
b1011 7
#3310000
0"
0,
#3315000
1"
1,
b1100 7
#3320000
0"
0,
#3325000
1"
1,
b1101 7
#3330000
0"
0,
#3335000
1"
1,
b1110 7
#3340000
0"
0,
#3345000
1"
1,
b1111 7
#3350000
0"
0,
#3355000
1"
0$
1,
1.
1/
b0 0
11
b1010 3
14
b10000 7
#3360000
0"
0,
#3365000
1"
1,
b10001 7
#3370000
0"
0,
#3375000
1"
1,
b10010 7
#3380000
0"
0,
#3385000
1"
1,
b10011 7
#3390000
0"
0,
#3395000
1"
1,
b10100 7
#3400000
0"
0,
#3405000
1"
1,
b10101 7
#3410000
0"
0,
#3415000
1"
1,
b10110 7
#3420000
0"
0,
#3425000
1"
1,
b10111 7
#3430000
0"
0,
#3435000
1"
1,
b11000 7
#3440000
0"
0,
#3445000
1"
1,
b11001 7
#3450000
0"
0,
#3455000
1"
1,
b11010 7
#3460000
0"
0,
#3465000
1"
1,
b11011 7
#3470000
0"
0,
#3475000
1"
1,
b11100 7
#3480000
0"
0,
#3485000
1"
1,
b11101 7
#3490000
0"
0,
#3495000
1"
1,
b11110 7
#3500000
0"
0,
#3505000
1"
1,
b11111 7
#3510000
0"
0,
#3515000
1"
1,
1.
1/
04
b0 7
#3520000
0"
0,
#3525000
1"
1,
b1 7
#3530000
0"
0,
#3535000
1"
1,
b10 7
#3540000
0"
0,
#3545000
1"
1,
b11 7
#3550000
0"
0,
#3555000
1"
1,
b100 7
#3560000
0"
0,
#3565000
1"
1,
b101 7
#3570000
0"
0,
#3575000
1"
1,
b110 7
#3580000
0"
0,
#3585000
1"
1,
b111 7
#3590000
0"
0,
#3595000
1"
1,
b1000 7
#3600000
0"
0,
#3605000
1"
1,
b1001 7
#3610000
0"
0,
#3615000
1"
1,
b1010 7
#3620000
0"
0,
#3625000
1"
1,
b1011 7
#3630000
0"
0,
#3635000
1"
1,
b1100 7
#3640000
0"
0,
#3645000
1"
1,
b1101 7
#3650000
0"
0,
#3655000
1"
1,
b1110 7
#3660000
0"
0,
#3665000
1"
1,
b1111 7
#3670000
0"
0,
#3675000
1"
0$
1,
1.
1/
b0 0
11
b1011 3
14
b10000 7
#3680000
0"
0,
#3685000
1"
1,
b10001 7
#3690000
0"
0,
#3695000
1"
1,
b10010 7
#3700000
0"
0,
#3705000
1"
1,
b10011 7
#3710000
0"
0,
#3715000
1"
1,
b10100 7
#3720000
0"
0,
#3725000
1"
1,
b10101 7
#3730000
0"
0,
#3735000
1"
1,
b10110 7
#3740000
0"
0,
#3745000
1"
1,
b10111 7
#3750000
0"
0,
#3755000
1"
1,
b11000 7
#3760000
0"
0,
#3765000
1"
1,
b11001 7
#3770000
0"
0,
#3775000
1"
1,
b11010 7
#3780000
0"
0,
#3785000
1"
1,
b11011 7
#3790000
0"
0,
#3795000
1"
1,
b11100 7
#3800000
0"
0,
#3805000
1"
1,
b11101 7
#3810000
0"
0,
#3815000
1"
1,
b11110 7
#3820000
0"
0,
#3825000
1"
1,
b11111 7
#3830000
0"
0,
#3835000
1"
1,
1.
1/
04
b0 7
#3840000
0"
0,
#3845000
1"
1,
b1 7
#3850000
0"
0,
#3855000
1"
1,
b10 7
#3860000
0"
0,
#3865000
1"
1,
b11 7
#3870000
0"
0,
#3875000
1"
1,
b100 7
#3880000
0"
0,
#3885000
1"
1,
b101 7
#3890000
0"
0,
#3895000
1"
1,
b110 7
#3900000
0"
0,
#3905000
1"
1,
b111 7
#3910000
0"
0,
#3915000
1"
1,
b1000 7
#3920000
0"
0,
#3925000
1"
1,
b1001 7
#3930000
0"
0,
#3935000
1"
1,
b1010 7
#3940000
0"
0,
#3945000
1"
1,
b1011 7
#3950000
0"
0,
#3955000
1"
1,
b1100 7
#3960000
0"
0,
#3965000
1"
1,
b1101 7
#3970000
0"
0,
#3975000
1"
1,
b1110 7
#3980000
0"
0,
#3985000
1"
1,
b1111 7
#3990000
0"
0,
#3995000
1"
0$
1,
1.
1/
b0 0
11
b1100 3
14
b10000 7
#4000000
0"
0,
#4005000
1"
1,
b10001 7
#4010000
0"
0,
#4015000
1"
1,
b10010 7
#4020000
0"
0,
#4025000
1"
1,
b10011 7
#4030000
0"
0,
#4035000
1"
1,
b10100 7
#4040000
0"
0,
#4045000
1"
1,
b10101 7
#4050000
0"
0,
#4055000
1"
1,
b10110 7
#4060000
0"
0,
#4065000
1"
1,
b10111 7
#4070000
0"
0,
#4075000
1"
1,
b11000 7
#4080000
0"
0,
#4085000
1"
1,
b11001 7
#4090000
0"
0,
#4095000
1"
1,
b11010 7
#4100000
0"
0,
#4105000
1"
1,
b11011 7
#4110000
0"
0,
#4115000
1"
1,
b11100 7
#4120000
0"
0,
#4125000
1"
1,
b11101 7
#4130000
0"
0,
#4135000
1"
1,
b11110 7
#4140000
0"
0,
#4145000
1"
1,
b11111 7
#4150000
0"
0,
#4155000
1"
1,
1.
1/
04
b0 7
#4160000
0"
0,
#4165000
1"
1,
b1 7
#4170000
0"
0,
#4175000
1"
1,
b10 7
#4180000
0"
0,
#4185000
1"
1,
b11 7
#4190000
0"
0,
#4195000
1"
1,
b100 7
#4200000
0"
0,
#4205000
1"
1,
b101 7
#4210000
0"
0,
#4215000
1"
1,
b110 7
#4220000
0"
0,
#4225000
1"
1,
b111 7
#4230000
0"
0,
#4235000
1"
1,
b1000 7
#4240000
0"
0,
#4245000
1"
1,
b1001 7
#4250000
0"
0,
#4255000
1"
1,
b1010 7
#4260000
0"
0,
#4265000
1"
1,
b1011 7
#4270000
0"
0,
#4275000
1"
1,
b1100 7
#4280000
0"
0,
#4285000
1"
1,
b1101 7
#4290000
0"
0,
#4295000
1"
1,
b1110 7
#4300000
0"
0,
#4305000
1"
1,
b1111 7
#4310000
0"
0,
#4315000
1"
0$
1,
1.
1/
b0 0
11
b1101 3
14
b10000 7
#4320000
0"
0,
#4325000
1"
1,
b10001 7
#4330000
0"
0,
#4335000
1"
1,
b10010 7
#4340000
0"
0,
#4345000
1"
1,
b10011 7
#4350000
0"
0,
#4355000
1"
1,
b10100 7
#4360000
0"
0,
#4365000
1"
1,
b10101 7
#4370000
0"
0,
#4375000
1"
1,
b10110 7
#4380000
0"
0,
#4385000
1"
1,
b10111 7
#4390000
0"
0,
#4395000
1"
1,
b11000 7
#4400000
0"
0,
#4405000
1"
1,
b11001 7
#4410000
0"
0,
#4415000
1"
1,
b11010 7
#4420000
0"
0,
#4425000
1"
1,
b11011 7
#4430000
0"
0,
#4435000
1"
1,
b11100 7
#4440000
0"
0,
#4445000
1"
1,
b11101 7
#4450000
0"
0,
#4455000
1"
1,
b11110 7
#4460000
0"
0,
#4465000
1"
1,
b11111 7
#4470000
0"
0,
#4475000
1"
1,
1.
1/
04
b0 7
#4480000
0"
0,
#4485000
1"
1,
b1 7
#4490000
0"
0,
#4495000
1"
1,
b10 7
#4500000
0"
0,
#4505000
1"
1,
b11 7
#4510000
0"
0,
#4515000
1"
1,
b100 7
#4520000
0"
0,
#4525000
1"
1,
b101 7
#4530000
0"
0,
#4535000
1"
1,
b110 7
#4540000
0"
0,
#4545000
1"
1,
b111 7
#4550000
0"
0,
#4555000
1"
1,
b1000 7
#4560000
0"
0,
#4565000
1"
1,
b1001 7
#4570000
0"
0,
#4575000
1"
1,
b1010 7
#4580000
0"
0,
#4585000
1"
1,
b1011 7
#4590000
0"
0,
#4595000
1"
1,
b1100 7
#4600000
0"
0,
#4605000
1"
1,
b1101 7
#4610000
0"
0,
#4615000
1"
1,
b1110 7
#4620000
0"
0,
#4625000
1"
1,
b1111 7
#4630000
0"
0,
#4635000
1"
0$
1,
1.
1/
b0 0
11
b1110 3
14
b10000 7
#4640000
0"
0,
#4645000
1"
1,
b10001 7
#4650000
0"
0,
#4655000
1"
1,
b10010 7
#4660000
0"
0,
#4665000
1"
1,
b10011 7
#4670000
0"
0,
#4675000
1"
1,
b10100 7
#4680000
0"
0,
#4685000
1"
1,
b10101 7
#4690000
0"
0,
#4695000
1"
1,
b10110 7
#4700000
0"
0,
#4705000
1"
1,
b10111 7
#4710000
0"
0,
#4715000
1"
1,
b11000 7
#4720000
0"
0,
#4725000
1"
1,
b11001 7
#4730000
0"
0,
#4735000
1"
1,
b11010 7
#4740000
0"
0,
#4745000
1"
1,
b11011 7
#4750000
0"
0,
#4755000
1"
1,
b11100 7
#4760000
0"
0,
#4765000
1"
1,
b11101 7
#4770000
0"
0,
#4775000
1"
1,
b11110 7
#4780000
0"
0,
#4785000
1"
1,
b11111 7
#4790000
0"
0,
#4795000
1"
1,
1.
1/
04
b0 7
#4800000
0"
0,
#4805000
1"
1,
b1 7
#4810000
0"
0,
#4815000
1"
1,
b10 7
#4820000
0"
0,
#4825000
1"
1,
b11 7
#4830000
0"
0,
#4835000
1"
1,
b100 7
#4840000
0"
0,
#4845000
1"
1,
b101 7
#4850000
0"
0,
#4855000
1"
1,
b110 7
#4860000
0"
0,
#4865000
1"
1,
b111 7
#4870000
0"
0,
#4875000
1"
1,
b1000 7
#4880000
0"
0,
#4885000
1"
1,
b1001 7
#4890000
0"
0,
#4895000
1"
1,
b1010 7
#4900000
0"
0,
#4905000
1"
1,
b1011 7
#4910000
0"
0,
#4915000
1"
1,
b1100 7
#4920000
0"
0,
#4925000
1"
1,
b1101 7
#4930000
0"
0,
#4935000
1"
1,
b1110 7
#4940000
0"
0,
#4945000
1"
1,
b1111 7
#4950000
0"
0,
#4955000
1"
1$
1,
1.
1/
b0 0
11
02
b1111 3
14
b10000 7
#4960000
0"
0,
#4965000
1"
1,
b10001 7
#4970000
0"
0,
#4975000
1"
1,
b10010 7
#4980000
0"
0,
#4985000
1"
1,
b10011 7
#4990000
0"
0,
#4995000
1"
1,
b10100 7
#5000000
0"
0,
#5005000
1"
1,
b10101 7
#5010000
0"
0,
#5015000
1"
1,
b10110 7
#5020000
0"
0,
#5025000
1"
1,
b10111 7
#5030000
0"
0,
